More Data Transformation – STA 199
…
# A tibble: 1 × 2
  mean_roi mean_budget
     <dbl>       <dbl>
1     8.19   57035015.

Recap: Group by, summarize, mutate

What if I change summarize to mutate?

bechdel |>
  group_by(binary) |>
  mutate(mean_roi = mean(roi, na.rm = TRUE), 
            mean_budget = mean(budget_2013)) 

# A tibble: 1,615 × 9
# Groups:   binary [2]
   title          year gross_2013 budget_2013    roi binary clean_test
   <chr>         <dbl>      <dbl>       <dbl>  <dbl> <chr>  <chr>     
 1 21 & Over      2013   67878146    13000000  5.22  FAIL   notalk    
 2 Dredd 3D       2012   55078343    45658735  1.21  PASS   ok        
 3 12 Years a S…  2013  211714070    20000000 10.6   FAIL   notalk    
 4 2 Guns         2013  208105475    61000000  3.41  FAIL   notalk    
 5 42             2013  190040426    40000000  4.75  FAIL   men       
 6 47 Ronin       2013  184166317   225000000  0.819 FAIL   men       
 7 A Good Day t…  2013  371598396    92000000  4.04  FAIL   notalk    
 8 About Time     2013  102648667    12000000  8.55  PASS   ok        
 9 Admission      2013   36014634    13000000  2.77  PASS   ok        
10 After Earth    2013  304895295   130000000  2.35  FAIL   notalk    
# ℹ 1,605 more rows
# ℹ 2 more variables: mean_roi <dbl>, mean_budget <dbl>

Recap: Group by, summarize, mutate

What if I change summarize to mutate?

bechdel |>
  group_by(binary) |>
  mutate(mean_roi = mean(roi, na.rm = TRUE), 
            mean_budget = mean(budget_2013)) |>
  select(title, binary, mean_roi, mean_budget)

# A tibble: 1,615 × 4
# Groups:   binary [2]
   title                  binary mean_roi mean_budget
   <chr>                  <chr>     <dbl>       <dbl>
 1 21 & Over              FAIL       8.36   65877024.
 2 Dredd 3D               PASS       7.99   46913086.
 3 12 Years a Slave       FAIL       8.36   65877024.
 4 2 Guns                 FAIL       8.36   65877024.
 5 42                     FAIL       8.36   65877024.
 6 47 Ronin               FAIL       8.36   65877024.
 7 A Good Day to Die Hard FAIL       8.36   65877024.
 8 About Time             PASS       7.99   46913086.
 9 Admission              PASS       7.99   46913086.
10 After Earth            FAIL       8.36   65877024.
# ℹ 1,605 more rows
…
You can group by more than one variable!

bechdel |>
  group_by(binary, year) |>
  summarise(mean_roi = mean(roi, na.rm = TRUE), 
            mean_budget = mean(budget_2013)) 

`summarise()` has regrouped the output.
ℹ Summaries were computed grouped by binary and year.
ℹ Output is grouped by binary.
ℹ Use `summarise(.groups = "drop_last")` to silence this message.
ℹ Use `summarise(.by = c(binary, year))` for per-operation grouping
  (`?dplyr::dplyr_by`) instead.

# A tibble: 48 × 4
# Groups:   binary [2]
   binary  year mean_roi mean_budget
   <chr>  <dbl>    <dbl>       <dbl>
 1 FAIL    1990    13.1    73101991.
 2 FAIL    1991     6.71   74299353 
 3 FAIL    1992    46.3    38883983.
 4 FAIL    1993     6.36   49099374.
 5 FAIL    1994    23.7    57812022.
 6 FAIL    1995     5.69   68251510.
 7 FAIL    1996     3.82   68600475.
 8 FAIL    1997    16.5    73257554.
 9 FAIL    1998     6.95   53083540.
10 FAIL    1999     5.12   72804781.
# ℹ 38 more rows
…
bechdel |>
  group_by(binary, year) |>
  summarise(mean_roi = mean(roi, na.rm = TRUE), 
            mean_budget = mean(budget_2013)) |>
  ungroup()

`summarise()` has regrouped the output.
ℹ Summaries were computed grouped by binary and year.
ℹ Output is grouped by binary.
ℹ Use `summarise(.groups = "drop_last")` to silence this message.
ℹ Use `summarise(.by = c(binary, year))` for per-operation grouping
  (`?dplyr::dplyr_by`) instead.

# A tibble: 48 × 4
   binary  year mean_roi mean_budget
   <chr>  <dbl>    <dbl>       <dbl>
 1 FAIL    1990    13.1    73101991.
 2 FAIL    1991     6.71   74299353 
 3 FAIL    1992    46.3    38883983.
 4 FAIL    1993     6.36   49099374.
 5 FAIL    1994    23.7    57812022.
 6 FAIL    1995     5.69   68251510.
 7 FAIL    1996     3.82   68600475.
 8 FAIL    1997    16.5    73257554.
 9 FAIL    1998     6.95   53083540.
10 FAIL    1999     5.12   72804781.
# ℹ 38 more rows
…
Why is this useful?

We can do data transformation immediately followed by a plot!

Normally, even if we are just plotting, we use the pipe with ggplot().

Plot + data transform

bechdel

# A tibble: 1,615 × 7
   title          year gross_2013 budget_2013    roi binary clean_test
   <chr>         <dbl>      <dbl>       <dbl>  <dbl> <chr>  <chr>     
 1 21 & Over      2013   67878146    13000000  5.22  FAIL   notalk    
 2 Dredd 3D       2012   55078343    45658735  1.21  PASS   ok        
 3 12 Years a S…  2013  211714070    20000000 10.6   FAIL   notalk    
 4 2 Guns         2013  208105475    61000000  3.41  FAIL   notalk    
 5 42             2013  190040426    40000000  4.75  FAIL   men       
 6 47 Ronin       2013  184166317   225000000  0.819 FAIL   men       
 7 A Good Day t…  2013  371598396    92000000  4.04  FAIL   notalk    
 8 About Time     2013  102648667    12000000  8.55  PASS   ok        
 9 Admission      2013   36014634    13000000  2.77  PASS   ok        
10 After Earth    2013  304895295   130000000  2.35  FAIL   notalk    
# ℹ 1,605 more rows

Plot + data transform

bechdel |>
  mutate(budget_in_millions = budget_2013/1000000)

# A tibble: 1,615 × 8
   title          year gross_2013 budget_2013    roi binary clean_test
   <chr>         <dbl>      <dbl>       <dbl>  <dbl> <chr>  <chr>     
 1 21 & Over      2013   67878146    13000000  5.22  FAIL   notalk    
 2 Dredd 3D       2012   55078343    45658735  1.21  PASS   ok        
 3 12 Years a S…  2013  211714070    20000000 10.6   FAIL   notalk    
 4 2 Guns         2013  208105475    61000000  3.41  FAIL   notalk    
 5 42             2013  190040426    40000000  4.75  FAIL   men       
 6 47 Ronin       2013  184166317   225000000  0.819 FAIL   men       
 7 A Good Day t…  2013  371598396    92000000  4.04  FAIL   notalk    
 8 About Time     2013  102648667    12000000  8.55  PASS   ok        
 9 Admission      2013   36014634    13000000  2.77  PASS   ok        
10 After Earth    2013  304895295   130000000  2.35  FAIL   notalk    
# ℹ 1,605 more rows
# ℹ 1 more variable: budget_in_millions <dbl>
…
