STA 199 – Exploratory Data Analysis II
…
Let’s simplify!

What does group_by() do in the following pipeline?

gerrymander |>
  group_by(state) |>
  summarize(mean_trump16 = mean(trump16))

# A tibble: 50 × 2
   state mean_trump16
   <chr>        <dbl>
 1 AK            52.8
 2 AL            62.6
 3 AR            60.9
 4 AZ            46.9
 5 CA            31.7
 6 CO            43.6
 7 CT            41.0
 8 DE            41.9
 9 FL            47.9
10 GA            51.3
# ℹ 40 more rows
…
# A tibble: 1 × 1
  mean_trump16
         <dbl>
1         45.9

group_by()

it converts a data frame to a grouped data frame, where subsequent operations are performed once per group

ungroup() removes grouping

gerrymander |>
  group_by(state)

# A tibble: 435 × 12
# Groups:   state [50]
   district last_name first_name party16 clinton16 trump16 dem16 state
   <chr>    <chr>     <chr>      <chr>       <dbl>   <dbl> <dbl> <chr>
 1 AK-AL    Young     Don        R            37.6    52.8     0 AK   
 2 AL-01    Byrne     Bradley    R            34.1    63.5     0 AL   
 3 AL-02    Roby      Martha     R            33      64.9     0 AL   
 4 AL-03    Rogers    Mike D.    R            32.3    65.3     0 AL   
 5 AL-04    Aderholt  Rob        R            17.4    80.4     0 AL   
 6 AL-05    Brooks    Mo         R            31.3    64.7     0 AL   
 7 AL-06    Palmer    Gary       R            26.1    70.8     0 AL   
 8 AL-07    Sewell    Terri      D            69.8    28.6     1 AL   
 9 AR-01    Crawford  Rick       R            30.2    65       0 AR   
10 AR-02    Hill      French     R            41.7    52.4     0 AR   
# ℹ 425 more rows
# ℹ 4 more variables: party18 <chr>, dem18 <dbl>, flip18 <dbl>,
#   gerry <fct>

group_by()

it converts a data frame to a grouped data frame, where subsequent operations are performed once per group

ungroup() removes grouping

gerrymander |>
  group_by(state) |>
  ungroup()

# A tibble: 435 × 12
   district last_name first_name party16 clinton16 trump16 dem16 state
   <chr>    <chr>     <chr>      <chr>       <dbl>   <dbl> <dbl> <chr>
 1 AK-AL    Young     Don        R            37.6    52.8     0 AK   
 2 AL-01    Byrne     Bradley    R            34.1    63.5     0 AL   
 3 AL-02    Roby      Martha     R            33      64.9     0 AL   
 4 AL-03    Rogers    Mike D.    R            32.3    65.3     0 AL   
 5 AL-04    Aderholt  Rob        R            17.4    80.4     0 AL   
 6 AL-05    Brooks    Mo         R            31.3    64.7     0 AL   
 7 AL-06    Palmer    Gary       R            26.1    70.8     0 AL   
 8 AL-07    Sewell    Terri      D            69.8    28.6     1 AL   
 9 AR-01    Crawford  Rick       R            30.2    65       0 AR   
10 AR-02    Hill      French     R            41.7    52.4     0 AR   
# ℹ 425 more rows
# ℹ 4 more variables: party18 <chr>, dem18 <dbl>, flip18 <dbl>,
#   gerry <fct>

group_by() |> summarize()

A common pipeline is group_by() and then summarize() to calculate summary statistics for each group:

gerrymander |>
  group_by(state) |>
  summarize(
    mean_trump16 = mean(trump16),
    median_trump16 = median(trump16)
  )

# A tibble: 50 × 3
   state mean_trump16 median_trump16
   <chr>        <dbl>          <dbl>
 1 AK            52.8           52.8
 2 AL            62.6           64.9
 3 AR            60.9           63.0
 4 AZ            46.9           47.7
 5 CA            31.7           28.4
 6 CO            43.6           41.3
 7 CT            41.0           40.4
 8 DE            41.9           41.9
 9 FL            47.9           49.6
10 GA            51.3           56.6
# ℹ 40 more rows

group_by() |> summarize()

This pipeline can also be used to count number of observations for each group:

gerrymander |>
  group_by(state) |>
  summarize(n = n())

# A tibble: 50 × 2
   state     n
   <chr> <int>
 1 AK        1
 2 AL        7
 3 AR        4
 4 AZ        9
 5 CA       53
 6 CO        7
 7 CT        5
 8 DE        1
 9 FL       27
10 GA       14
# ℹ 40 more rows
…
To the left of the equal signs are your choice of column names in the new data frame you are creating. You can type whatever you want here (within reason);

To the right of the equal signs is R code that computes the summaries. You must use the correct command names (case sensitive): mean, median, quantile, sd, var, etc;

If you want to learn what these do, read the documentation (eg ?quantile).

Spot the difference

What’s the difference between the following two pipelines?

gerrymander |>
  group_by(state) |>
  summarize(n = n())

# A tibble: 50 × 2
   state     n
   <chr> <int>
 1 AK        1
 2 AL        7
 3 AR        4
 4 AZ        9
 5 CA       53
 6 CO        7
 7 CT        5
 8 DE        1
 9 FL       27
10 GA       14
# ℹ 40 more rows

gerrymander |>
  count(state)

# A tibble: 50 × 2
   state     n
   <chr> <int>
 1 AK        1
 2 AL        7
 3 AR        4
 4 AZ        9
 5 CA       53
 6 CO        7
 7 CT        5
 8 DE        1
 9 FL       27
10 GA       14
# ℹ 40 more rows
…
Count the number of observations in each level of variable(s); if you supply more than 1 variable, count the number of observations in each unique combination of levels across all variables

Place the counts in a variable called n; you can access this variable in downstream code

count() and sort

What does the following pipeline do? Rewrite it with count() instead.

gerrymander |>
  group_by(state) |>
  summarize(n = n()) |>
  arrange(desc(n))

# A tibble: 50 × 2
   state     n
   <chr> <int>
 1 CA       53
 2 TX       36
 3 FL       27
 4 NY       27
 5 IL       18
 6 PA       18
 7 OH       16
 8 GA       14
 9 MI       14
10 NC       13
# ℹ 40 more rows

count() and sort

What does the following pipeline do? Rewrite it with count() instead.

gerrymander |>
  count(state) |>
  arrange(desc(n))

# A tibble: 50 × 2
   state     n
   <chr> <int>
 1 CA       53
 2 TX       36
 3 FL       27
 4 NY       27
 5 IL       18
 6 PA       18
 7 OH       16
 8 GA       14
 9 MI       14
10 NC       13
# ℹ 40 more rows

count() and sort

What does the following pipeline do? Rewrite it with count() instead.

gerrymander |>
  count(state, sort = TRUE)

# A tibble: 50 × 2
   state     n
   <chr> <int>
 1 CA       53
 2 TX       36
 3 FL       27
 4 NY       27
 5 IL       18
 6 PA       18
 7 OH       16
 8 GA       14
 9 MI       14
10 NC       13
# ℹ 40 more rows
…
But it’s stored as a numeric

So we need to change its type first, before we can use it as a categorical variable (more on this tomorrow!)

The mutate() function transforms (mutates) a data frame by creating a new column or updating an existing one

In this case, we want to use it to update an existing column, flip18.

mutate() in action

gerrymander |>
  mutate(flip18 = as_factor(flip18))

# A tibble: 435 × 12
   district last_name first_name party16 clinton16 trump16 dem16 state
   <chr>    <chr>     <chr>      <chr>       <dbl>   <dbl> <dbl> <chr>
 1 AK-AL    Young     Don        R            37.6    52.8     0 AK   
 2 AL-01    Byrne     Bradley    R            34.1    63.5     0 AL   
 3 AL-02    Roby      Martha     R            33      64.9     0 AL   
 4 AL-03    Rogers    Mike D.    R            32.3    65.3     0 AL   
 5 AL-04    Aderholt  Rob        R            17.4    80.4     0 AL   
 6 AL-05    Brooks    Mo         R            31.3    64.7     0 AL   
 7 AL-06    Palmer    Gary       R            26.1    70.8     0 AL   
 8 AL-07    Sewell    Terri      D            69.8    28.6     1 AL   
 9 AR-01    Crawford  Rick       R            30.2    65       0 AR   
10 AR-02    Hill      French     R            41.7    52.4     0 AR   
# ℹ 425 more rows
# ℹ 4 more variables: party18 <chr>, dem18 <dbl>, flip18 <fct>,
#   gerry <fct>

mutate() in action

gerrymander |>
  mutate(flip18 = as_factor(flip18)) |>
  relocate(flip18) ## make flip18 the first column in gerrymander

# A tibble: 435 × 12
   flip18 district last_name first_name party16 clinton16 trump16
   <fct>  <chr>    <chr>     <chr>      <chr>       <dbl>   <dbl>
 1 0      AK-AL    Young     Don        R            37.6    52.8
 2 0      AL-01    Byrne     Bradley    R            34.1    63.5
 3 0      AL-02    Roby      Martha     R            33      64.9
 4 0      AL-03    Rogers    Mike D.    R            32.3    65.3
 5 0      AL-04    Aderholt  Rob        R            17.4    80.4
 6 0      AL-05    Brooks    Mo         R            31.3    64.7
 7 0      AL-06    Palmer    Gary       R            26.1    70.8
 8 0      AL-07    Sewell    Terri      D            69.8    28.6
 9 0      AR-01    Crawford  Rick       R            30.2    65  
10 0      AR-02    Hill      French     R            41.7    52.4
# ℹ 425 more rows
# ℹ 5 more variables: dem16 <dbl>, state <chr>, party18 <chr>,
#   dem18 <dbl>, gerry <fct>
…
Plot + data transform

We can do data transformation immediately followed by a plot!

gerrymander

# A tibble: 435 × 12
   district last_name first_name party16 clinton16 trump16 dem16 state
   <chr>    <chr>     <chr>      <chr>       <dbl>   <dbl> <dbl> <chr>
 1 AK-AL    Young     Don        R            37.6    52.8     0 AK   
 2 AL-01    Byrne     Bradley    R            34.1    63.5     0 AL   
 3 AL-02    Roby      Martha     R            33      64.9     0 AL   
 4 AL-03    Rogers    Mike D.    R            32.3    65.3     0 AL   
 5 AL-04    Aderholt  Rob        R            17.4    80.4     0 AL   
 6 AL-05    Brooks    Mo         R            31.3    64.7     0 AL   
 7 AL-06    Palmer    Gary       R            26.1    70.8     0 AL   
 8 AL-07    Sewell    Terri      D            69.8    28.6     1 AL   
 9 AR-01    Crawford  Rick       R            30.2    65       0 AR   
10 AR-02    Hill      French     R            41.7    52.4     0 AR   
# ℹ 425 more rows
# ℹ 4 more variables: party18 <chr>, dem18 <dbl>, flip18 <dbl>,
#   gerry <fct>

Plot + data transform

We can do data transformation immediately followed by a plot!

gerrymander |>
  mutate(trump16_prop = trump16/100)

# A tibble: 435 × 13
   district last_name first_name party16 clinton16 trump16 dem16 state
   <chr>    <chr>     <chr>      <chr>       <dbl>   <dbl> <dbl> <chr>
 1 AK-AL    Young     Don        R            37.6    52.8     0 AK   
 2 AL-01    Byrne     Bradley    R            34.1    63.5     0 AL   
 3 AL-02    Roby      Martha     R            33      64.9     0 AL   
 4 AL-03    Rogers    Mike D.    R            32.3    65.3     0 AL   
 5 AL-04    Aderholt  Rob        R            17.4    80.4     0 AL   
 6 AL-05    Brooks    Mo         R            31.3    64.7     0 AL   
 7 AL-06    Palmer    Gary       R            26.1    70.8     0 AL   
 8 AL-07    Sewell    Terri      D            69.8    28.6     1 AL   
 9 AR-01    Crawford  Rick       R            30.2    65       0 AR   
10 AR-02    Hill      French     R            41.7    52.4     0 AR   
# ℹ 425 more rows
# ℹ 5 more variables: party18 <chr>, dem18 <dbl>, flip18 <dbl>,
#   gerry <fct>, trump16_prop <dbl>
…
