Tidying Data 🧹 – STA 199
…
year

statsci |> 
  pivot_longer(
    cols = -degree_type,
    values_to = "n",
    names_to = "year"
  )

# A tibble: 60 × 3
   degree_type year      n
   <chr>       <chr> <dbl>
 1 AB2         2011      0
 2 AB2         2012      1
 3 AB2         2013      0
 4 AB2         2014      0
 5 AB2         2015      4
 6 AB2         2016      4
 7 AB2         2017      1
 8 AB2         2018      0
 9 AB2         2019      0
10 AB2         2020      1
# ℹ 50 more rows
…
pivot_longer() again

This time, also make sure year is a numerical variable in the resulting data frame.

statsci |>
  pivot_longer(
    cols = -degree_type,
    values_to = "n",
    names_to = "year",
    names_transform = as.numeric
  )

# A tibble: 60 × 3
   degree_type  year     n
   <chr>       <dbl> <dbl>
 1 AB2          2011     0
 2 AB2          2012     1
 3 AB2          2013     0
 4 AB2          2014     0
 5 AB2          2015     4
 6 AB2          2016     4
 7 AB2          2017     1
 8 AB2          2018     0
 9 AB2          2019     0
10 AB2          2020     1
# ℹ 50 more rows
…
