STA 199 – Joining Data
…
Joining Data

Joining Data

What happens if we want to access information from two different data sets at the same time (e.g., for EDA / plotting purposes)?

Joining Data: Sample Scenario

population

# A tibble: 217 × 3
   country              year population
   <chr>               <dbl>      <dbl>
 1 Afghanistan          2022    41129. 
 2 Albania              2022     2778. 
 3 Algeria              2022    44903. 
 4 American Samoa       2022       44.3
 5 Andorra              2022       79.8
 6 Angola               2022    35589. 
 7 Antigua and Barbuda  2022       93.8
 8 Argentina            2022    46235. 
 9 Armenia              2022     2780. 
10 Aruba                2022      106. 
# ℹ 207 more rows

We want to know about population in different continents.

We could use mutate to create a continent variable, but that would be painful… we would have to manually tell R which continent each country in our df belongs to

Joining Data: Sample Scenario

population

# A tibble: 217 × 3
   country              year population
   <chr>               <dbl>      <dbl>
 1 Afghanistan          2022    41129. 
 2 Albania              2022     2778. 
 3 Algeria              2022    44903. 
 4 American Samoa       2022       44.3
 5 Andorra              2022       79.8
 6 Angola               2022    35589. 
 7 Antigua and Barbuda  2022       93.8
 8 Argentina            2022    46235. 
 9 Armenia              2022     2780. 
10 Aruba                2022      106. 
# ℹ 207 more rows

continent

# A tibble: 285 × 4
   entity                code      year continent    
   <chr>                 <chr>    <dbl> <chr>        
 1 Abkhazia              OWID_ABK  2015 Asia         
 2 Afghanistan           AFG       2015 Asia         
 3 Akrotiri and Dhekelia OWID_AKD  2015 Asia         
 4 Aland Islands         ALA       2015 Europe       
 5 Albania               ALB       2015 Europe       
 6 Algeria               DZA       2015 Africa       
 7 American Samoa        ASM       2015 Oceania      
 8 Andorra               AND       2015 Europe       
 9 Angola                AGO       2015 Africa       
10 Anguilla              AIA       2015 North America
# ℹ 275 more rows
…
