The Language of Models – STA 199
…
New command: cor

df

# A tibble: 140 × 4
       x series     y r    
   <int> <chr>  <dbl> <fct>
 1     1 y1      0.75 r = 1
 2     2 y1      1.5  r = 1
 3     3 y1      2.25 r = 1
 4     4 y1      3    r = 1
 5     5 y1      3.75 r = 1
 6     6 y1      4.5  r = 1
 7     7 y1      5.25 r = 1
 8     8 y1      6    r = 1
 9     9 y1      6.75 r = 1
10    10 y1      7.5  r = 1
# ℹ 130 more rows
…
