Multiple Linear Regression 1 – STA 199
…
Huh?

Dummy variables

dummy_penguins <- penguins |>
  select(body_mass_g, island) |>
  arrange(body_mass_g) |>
  mutate(
    islandDream = if_else(island == "Dream", 1, 0),
    islandTorgersen = if_else(island == "Torgersen", 1, 0),
  )

dummy_penguins

# A tibble: 344 × 4
   body_mass_g island    islandDream islandTorgersen
         <int> <fct>           <dbl>           <dbl>
 1        2700 Dream               1               0
 2        2850 Biscoe              0               0
 3        2850 Biscoe              0               0
 4        2900 Biscoe              0               0
 5        2900 Dream               1               0
 6        2900 Torgersen           0               1
 7        2900 Dream               1               0
 8        2925 Biscoe              0               0
 9        2975 Dream               1               0
10        3000 Dream               1               0
# ℹ 334 more rows
…
