Multiple Linear Regression 2 – STA 199
…
Reminder: residuals

The residuals are what’s left over after the model attempts to “explain” the response:

\[
e_i = \text{observed} - \text{predicted} = y_i - \widehat{y_i}.
\]

Every data point has one:

augment(bm_fl_fit, penguins) |>
  select(flipper_length_mm, body_mass_g, .pred, .resid)

# A tibble: 344 × 4
   flipper_length_mm body_mass_g .pred  .resid
               <int>       <int> <dbl>   <dbl>
 1               181        3750 3212.  538.  
 2               186        3800 3461.  339.  
 3               195        3250 3908. -658.  
 4                NA          NA   NA    NA   
 5               193        3450 3808. -358.  
 6               190        3650 3659.   -9.43
 7               181        3625 3212.  413.  
 8               195        4675 3908.  767.  
 9               193        3475 3808. -333.  
10               190        4250 3659.  591.  
# ℹ 334 more rows
…
