Logistic Regression II – STA 199
…
Here’s an alternative model

Dump all the predictors in:

Using a . on the RHS of the ~ in fit() will throw all columns in the data frame you supply into the model (except for the outcome column itself) as predictors. This is a time-saver and avoids the need for listing every variable manually

full_logistic_fit <- logistic_reg() |>
  fit(spam ~ ., data = email)

tidy(full_logistic_fit)

# A tibble: 22 × 5
   term         estimate std.error statistic  p.value
   <chr>           <dbl>     <dbl>     <dbl>    <dbl>
 1 (Intercept)  -9.09e+1   9.80e+3  -0.00928 9.93e- 1
 2 to_multiple1 -2.68e+0   3.27e-1  -8.21    2.25e-16
 3 from1        -2.19e+1   9.80e+3  -0.00224 9.98e- 1
 4 cc            1.88e-2   2.20e-2   0.855   3.93e- 1
 5 sent_email1  -2.07e+1   3.87e+2  -0.0536  9.57e- 1
 6 time          8.48e-8   2.85e-8   2.98    2.92e- 3
 7 image        -1.78e+0   5.95e-1  -3.00    2.73e- 3
 8 attach        7.35e-1   1.44e-1   5.09    3.61e- 7
 9 dollar       -6.85e-2   2.64e-2  -2.59    9.64e- 3
10 winneryes     2.07e+0   3.65e-1   5.67    1.41e- 8
# ℹ 12 more rows
…
.pred_class: model prediction (\(\widehat{y}\)), based on a 50% threshold by default;

.pred_0: model estimate of \(P(y=0)\);

.pred_1: model estimate of \(P(y=1) = 1 - P(y = 0)\).

The augment function

The augment function takes a data frame and “augments” it by adding three new columns on the left that describe the model predictions for each row:

log_aug_full <- augment(full_logistic_fit, email)
log_aug_full

# A tibble: 3,921 × 24
   .pred_class .pred_0  .pred_1 spam  to_multiple from     cc
   <fct>         <dbl>    <dbl> <fct> <fct>       <fct> <int>
 1 0             0.867 1.33e- 1 0     0           1         0
 2 0             0.943 5.70e- 2 0     0           1         0
 3 0             0.942 5.78e- 2 0     0           1         0
 4 0             0.920 7.96e- 2 0     0           1         0
 5 0             0.903 9.74e- 2 0     0           1         0
 6 0             0.901 9.87e- 2 0     0           1         0
 7 0             1.000 7.89e-12 0     1           1         0
 8 0             1.000 1.24e-12 0     1           1         1
 9 0             0.862 1.38e- 1 0     0           1         0
10 0             0.922 7.76e- 2 0     0           1         0
# ℹ 3,911 more rows
# ℹ 17 more variables: sent_email <fct>, time <dttm>, image <dbl>,
#   attach <dbl>, dollar <dbl>, winner <fct>, inherit <dbl>,
#   viagra <dbl>, password <dbl>, num_char <dbl>, line_breaks <int>,
#   format <fct>, re_subj <fct>, exclaim_subj <dbl>,
#   urgent_subj <fct>, exclaim_mess <dbl>, number <fct>
…
Data

The U.S. Forest Service maintains machine learning models to predict whether a plot of land is “forested.”

This classification is important for research, legislation, land management, etc. purposes.

Plots are typically remeasured every 10 years.

The forested dataset contains the most recent measurement per plot.

Data: forested

forested

# A tibble: 7,107 × 19
   forested  year elevation eastness northness roughness tree_no_tree
   <fct>    <dbl>     <dbl>    <dbl>     <dbl>     <dbl> <fct>       
 1 Yes       2005       881       90        43        63 Tree        
 2 Yes       2005       113      -25        96        30 Tree        
 3 No        2005       164      -84        53        13 Tree        
 4 Yes       2005       299       93        34         6 No tree     
 5 Yes       2005       806       47       -88        35 Tree        
 6 Yes       2005       736      -27       -96        53 Tree        
 7 Yes       2005       636      -48        87         3 No tree     
 8 Yes       2005       224      -65       -75         9 Tree        
 9 Yes       2005        52      -62        78        42 Tree        
10 Yes       2005      2240      -67       -74        99 No tree     
# ℹ 7,097 more rows
# ℹ 12 more variables: dew_temp <dbl>, precip_annual <dbl>,
#   temp_annual_mean <dbl>, temp_annual_min <dbl>,
#   temp_annual_max <dbl>, temp_january_min <dbl>, vapor_min <dbl>,
#   vapor_max <dbl>, canopy_cover <dbl>, lon <dbl>, lat <dbl>,
#   land_type <fct>
…
This allows us to reproduce results by setting that seed.

Which seed you pick doesn’t matter, as long as you don’t try a bunch of seeds and pick the one that gives you the best performance.

Accessing the data

forested_train <- training(forested_split)
forested_test <- testing(forested_split)

The training set

forested_train

# A tibble: 5,330 × 19
   forested  year elevation eastness northness roughness tree_no_tree
   <fct>    <dbl>     <dbl>    <dbl>     <dbl>     <dbl> <fct>       
 1 Yes       2017       203      -76        64        39 Tree        
 2 No        2019         0        0         0         0 No tree     
 3 No        2018       479        0         0         0 No tree     
 4 Yes       2015       681       51       -85       127 No tree     
 5 Yes       2015       909      -44       -89        42 Tree        
 6 Yes       2012       118      -14       -98         2 Tree        
 7 Yes       2019      1080       -3       -99       132 Tree        
 8 Yes       2011        36       18        98        39 Tree        
 9 Yes       2015       410      -92       -38        81 Tree        
10 No        2019       764        6        99        19 No tree     
# ℹ 5,320 more rows
# ℹ 12 more variables: dew_temp <dbl>, precip_annual <dbl>,
#   temp_annual_mean <dbl>, temp_annual_min <dbl>,
#   temp_annual_max <dbl>, temp_january_min <dbl>, vapor_min <dbl>,
#   vapor_max <dbl>, canopy_cover <dbl>, lon <dbl>, lat <dbl>,
#   land_type <fct>

The testing data

forested_test

# A tibble: 1,777 × 19
   forested  year elevation eastness northness roughness tree_no_tree
   <fct>    <dbl>     <dbl>    <dbl>     <dbl>     <dbl> <fct>       
 1 Yes       2005       736      -27       -96        53 Tree        
 2 Yes       2005       787       66       -74        95 Tree        
 3 Yes       2005      1330       99         7       212 Tree        
 4 Yes       2005      1423       46        88       180 Tree        
 5 Yes       2005      1038      -34       -93       183 No tree     
 6 No        2014       542      -32       -94        19 No tree     
 7 No        2014       290       46       -88         7 No tree     
 8 No        2014       676      -65       -75         6 No tree     
 9 No        2014       252       99         5       104 No tree     
10 Yes       2014      1634       54        83        38 Tree        
# ℹ 1,767 more rows
# ℹ 12 more variables: dew_temp <dbl>, precip_annual <dbl>,
#   temp_annual_mean <dbl>, temp_annual_min <dbl>,
#   temp_annual_max <dbl>, temp_january_min <dbl>, vapor_min <dbl>,
#   vapor_max <dbl>, canopy_cover <dbl>, lon <dbl>, lat <dbl>,
#   land_type <fct>
…
. . .

If \(precip\) increases by one unit, the model predicts a decrease in the odds that forested = "No" by a multiplicative factor of \(e^{-0.0019}\approx 0.99\).

Generate predictions for the test data

Augment the test data frame with three new columns on the left that include model predictions (classifications and probabilities) for each row:

forested_precip_aug <- augment(forested_precip_fit, forested_test)
forested_precip_aug

# A tibble: 1,777 × 22
   .pred_class .pred_Yes .pred_No forested  year elevation eastness
   <fct>           <dbl>    <dbl> <fct>    <dbl>     <dbl>    <dbl>
 1 No              0.366  0.634   Yes       2005       736      -27
 2 Yes             0.977  0.0227  Yes       2005       787       66
 3 Yes             0.992  0.00808 Yes       2005      1330       99
 4 Yes             0.994  0.00598 Yes       2005      1423       46
 5 Yes             0.849  0.151   Yes       2005      1038      -34
 6 No              0.261  0.739   No        2014       542      -32
 7 No              0.243  0.757   No        2014       290       46
 8 No              0.250  0.750   No        2014       676      -65
 9 No              0.280  0.720   No        2014       252       99
10 Yes             0.577  0.423   Yes       2014      1634       54
# ℹ 1,767 more rows
# ℹ 15 more variables: northness <dbl>, roughness <dbl>,
#   tree_no_tree <fct>, dew_temp <dbl>, precip_annual <dbl>,
#   temp_annual_mean <dbl>, temp_annual_min <dbl>,
#   temp_annual_max <dbl>, temp_january_min <dbl>, vapor_min <dbl>,
#   vapor_max <dbl>, canopy_cover <dbl>, lon <dbl>, lat <dbl>,
#   land_type <fct>
…
Unpacking roc_curve

Recall the augmented data frame:

forested_precip_aug |>
  select(.pred_class:forested)

# A tibble: 1,777 × 4
   .pred_class .pred_Yes .pred_No forested
   <fct>           <dbl>    <dbl> <fct>   
 1 No              0.366  0.634   Yes     
 2 Yes             0.977  0.0227  Yes     
 3 Yes             0.992  0.00808 Yes     
 4 Yes             0.994  0.00598 Yes     
 5 Yes             0.849  0.151   Yes     
 6 No              0.261  0.739   No      
 7 No              0.243  0.757   No      
 8 No              0.250  0.750   No      
 9 No              0.280  0.720   No      
10 Yes             0.577  0.423   Yes     
# ℹ 1,767 more rows
…
