Hypothesis Testing – STA 199
…
Computing the CI for the slope II

Take 100 bootstrap samples and fit models to each one:

set.seed(1120)

boot_fits <- duke_forest |>
  specify(price ~ area) |>
  generate(reps = 100, type = "bootstrap") |>
  fit()

boot_fits

# A tibble: 200 × 3
# Groups:   replicate [100]
   replicate term      estimate
       <int> <chr>        <dbl>
 1         1 intercept   47819.
 2         1 area          191.
 3         2 intercept  144645.
 4         2 area          134.
 5         3 intercept  114008.
 6         3 area          161.
 7         4 intercept  100639.
 8         4 area          166.
 9         5 intercept  215264.
10         5 area          125.
# ℹ 190 more rows
…
Rinse and repeat 10000 times…

View null distribution

null_dist

# A tibble: 2,000 × 3
# Groups:   replicate [1,000]
   replicate term       estimate
       <int> <chr>         <dbl>
 1         1 intercept 551475.  
 2         1 area           3.03
 3         2 intercept 478969.  
 4         2 area          29.1 
 5         3 intercept 581602.  
 6         3 area          -7.81
 7         4 intercept 492889.  
 8         4 area          24.1 
 9         5 intercept 484819.  
10         5 area          27.0 
# ℹ 1,990 more rows
…
