AE 11: Midterm ‘Live Coding’ Exam Practice 🏀⛹🐧️ – STA 199
…
nba_draft_anthro <- read_excel("data/nba-draft-combine-2425.xlsx", 
                               sheet = 1) |>
  clean_names()

nba_draft_strength_agility <- read_excel("data/nba-draft-combine-2425.xlsx",
                                         sheet = 2, skip = 1) |>
  clean_names()

nba_draft_raw <- nba_draft_anthro |>
  inner_join(nba_draft_strength_agility, by = join_by(player))

nba_draft_raw

# A tibble: 77 × 14
   player       position.x hand_length_inches hand_width_inches height_w_o_shoes
   <chr>        <chr>                   <dbl>             <dbl> <chr>           
 1 Michael Aja… SF                       9.5               9.75 6' 5.75''       
 2 Melvin Ajin… SF                       8.5               9.75 6' 7.25''       
 3 Trey Alexan… SG                       8.75             10    6' 3.25''       
 4 Izan Almansa C                        9.25              9.25 6' 9.25''       
 5 Reece Beekm… PG                       8.5               9    6' 1.25''       
 6 Adem Bona    C                        9.5              10    6' 8.25''       
 7 Trevon Braz… PF                       9                10.2  6' 9.25''       
 8 Jalen Bridg… SF                       9                10    6' 6.75''       
 9 Matas Buzel… SF                       8.5               9.25 6' 8.75''       
10 Carlton Car… PG                       8.5               9.25 6' 3.75''       
# ℹ 67 more rows
# ℹ 9 more variables: standing_reach <chr>, weight_lbs <dbl>, wingspan <chr>,
#   position.y <chr>, lane_agility_time <dbl>, shuttle_run <chr>,
#   three_quarter_sprint <dbl>, standing_vertical_leap <dbl>,
#   max_vertical_leap <dbl>
…
# A tibble: 0 × 15
# ℹ 15 variables: player <chr>, position.x <chr>, hand_length_inches <dbl>,
#   hand_width_inches <dbl>, height_w_o_shoes <chr>, standing_reach <chr>,
#   weight_lbs <dbl>, wingspan <chr>, position.y <chr>,
#   lane_agility_time <dbl>, shuttle_run <chr>, three_quarter_sprint <dbl>,
#   standing_vertical_leap <dbl>, max_vertical_leap <dbl>, same_pos <dbl>

nba_draft <- nba_draft_raw |>
  select(-position.y) |>
  rename(position = position.x)

nba_draft

# A tibble: 77 × 13
   player         position hand_length_inches hand_width_inches height_w_o_shoes
   <chr>          <chr>                 <dbl>             <dbl> <chr>           
 1 Michael Ajayi  SF                     9.5               9.75 6' 5.75''       
 2 Melvin Ajinca  SF                     8.5               9.75 6' 7.25''       
 3 Trey Alexander SG                     8.75             10    6' 3.25''       
 4 Izan Almansa   C                      9.25              9.25 6' 9.25''       
 5 Reece Beekman  PG                     8.5               9    6' 1.25''       
 6 Adem Bona      C                      9.5              10    6' 8.25''       
 7 Trevon Brazile PF                     9                10.2  6' 9.25''       
 8 Jalen Bridges  SF                     9                10    6' 6.75''       
 9 Matas Buzelis  SF                     8.5               9.25 6' 8.75''       
10 Carlton Carri… PG                     8.5               9.25 6' 3.75''       
# ℹ 67 more rows
# ℹ 8 more variables: standing_reach <chr>, weight_lbs <dbl>, wingspan <chr>,
#   lane_agility_time <dbl>, shuttle_run <chr>, three_quarter_sprint <dbl>,
#   standing_vertical_leap <dbl>, max_vertical_leap <dbl>
…
