Final Study Guide – STA 199
…
\(\log\left(\frac{\hat{p}}{1-\hat{p}}\right) = 0.798 + 0.486 \times x\)

\(\log\left(\frac{\hat{p}}{1-\hat{p}}\right) = -6.035 + 1.194 \times x\)

\(\log\left(\frac{\hat{p}}{1-\hat{p}}\right) = -2.26 - 0.99 \times x+1.26\times z\)

\(\log\left(\frac{\hat{p}}{1-\hat{p}}\right) = 0.079  -0.373 \times x\)

Questions 9 - 12

Recall the dataset on spam emails:

email

# A tibble: 3,921 × 21
   spam  exclaim_mess to_multiple from     cc sent_email time               
   <fct>        <dbl> <fct>       <fct> <int> <fct>      <dttm>             
 1 0                0 0           1         0 0          2012-01-01 06:16:41
 2 0                1 0           1         0 0          2012-01-01 07:03:59
 3 0                6 0           1         0 0          2012-01-01 16:00:32
 4 0               48 0           1         0 0          2012-01-01 09:09:49
 5 0                1 0           1         0 0          2012-01-01 10:00:01
 6 0                1 0           1         0 0          2012-01-01 10:04:46
 7 0                1 1           1         0 1          2012-01-01 17:55:06
 8 0               18 1           1         1 1          2012-01-01 18:45:21
 9 0                1 0           1         0 0          2012-01-01 21:08:59
10 0                0 0           1         0 0          2012-01-01 18:12:00
# ℹ 3,911 more rows
# ℹ 14 more variables: image <dbl>, attach <dbl>, dollar <dbl>, winner <fct>,
#   inherit <dbl>, viagra <dbl>, password <dbl>, num_char <dbl>,
#   line_breaks <int>, format <fct>, re_subj <fct>, exclaim_subj <dbl>,
#   urgent_subj <fct>, number <fct>

Here is a regression model trained on all available predictors:

log_fit <- logistic_reg() |>
  fit(spam ~ ., data = email)

The in-sample predictions of the model are here:

email_aug <- augment(log_fit, email)
email_aug

# A tibble: 3,921 × 24
   .pred_class .pred_0  .pred_1 spam  exclaim_mess to_multiple from     cc
   <fct>         <dbl>    <dbl> <fct>        <dbl> <fct>       <fct> <int>
 1 0             0.867 1.33e- 1 0                0 0           1         0
 2 0             0.943 5.70e- 2 0                1 0           1         0
 3 0             0.942 5.78e- 2 0                6 0           1         0
 4 0             0.920 7.96e- 2 0               48 0           1         0
 5 0             0.903 9.74e- 2 0                1 0           1         0
 6 0             0.901 9.87e- 2 0                1 0           1         0
 7 0             1.000 7.89e-12 0                1 1           1         0
 8 0             1.000 1.24e-12 0               18 1           1         1
 9 0             0.862 1.38e- 1 0                1 0           1         0
10 0             0.922 7.76e- 2 0                0 0           1         0
# ℹ 3,911 more rows
# ℹ 16 more variables: sent_email <fct>, time <dttm>, image <dbl>,
#   attach <dbl>, dollar <dbl>, winner <fct>, inherit <dbl>, viagra <dbl>,
#   password <dbl>, num_char <dbl>, line_breaks <int>, format <fct>,
#   re_subj <fct>, exclaim_subj <dbl>, urgent_subj <fct>, number <fct>
…
In 2020, employees of Blizzard Entertainment circulated a spreadsheet to anonymously share salaries and recent pay increases amidst rising tension in the video game industry over wage disparities and executive compensation. (Source: Blizzard Workers Share Salaries in Revolt Over Pay)

The name of the data frame used for this analysis is blizzard_salary and the variables are:

percent_incr: Raise given in July 2020, as percent increase with values ranging from 1 (1% increase) to 21.5 (21.5% increase)

salary_type: Type of salary, with levels Hourly and Salaried

annual_salary: Annual salary, in USD, with values ranging from $50,939 to $216,856.

performance_rating: Most recent review performance rating, with levels Poor, Successful, High, and Top. The Poor level is the lowest rating and the Top level is the highest rating.

The first ten rows of blizzard_salary are shown below:

# A tibble: 409 × 4
   percent_incr salary_type annual_salary performance_rating
          <dbl> <chr>               <dbl> <chr>             
 1          1   Salaried               1  High              
 2          1   Salaried               1  Successful        
 3          1   Salaried               1  High              
 4          1   Hourly             33987. Successful        
 5         NA   Hourly             34798. High              
 6         NA   Hourly             35360  <NA>              
 7         NA   Hourly             37440  <NA>              
 8          0   Hourly             37814. <NA>              
 9          4   Hourly             41101. Top               
10          1.2 Hourly             42328  <NA>              
# ℹ 399 more rows
…
gross
revenue of the movie

company
the production company

The first thirty rows of the movies data frame are shown in Table 2, with variable types suppressed (since we’ll ask about them later).

\begin{landscape}

Table 2

First 30 rows of movies, with variable types suppressed.

# A tibble: 500 × 16
   name           score runtime genre     rating    release_country release_date
 1 Blue City        4.4 83 mins Action    R         United States   1986-05-02  
 2 Winter Sleep     8.1 196     Drama     Not Rated Turkey          2014-06-12  
 3 Rang De Basan…   8.1 167     Comedy    Not Rated United States   2006-01-26  
 4 Pokémon Detec…   6.6 104     Action    PG        United States   2019-05-10  
 5 A Bad Moms Ch…   5.6 104     Comedy    R         United States   2017-11-01  
 6 Replicas         5.5 107     Drama     PG-13     United States   2019-01-11  
 7 Windy City       5.8 103     Drama     R         Uruguay         1986-01-01  
 8 War for the P…   7.4 140     Action    PG-13     United States   2017-07-14  
 9 Tales from th…   6.4 98      Crime     R         United States   1995-05-24  
10 Fire with Fire   6.5 103     Drama     PG-13     United States   1986-05-09  
11 Raising Helen    6   119     Comedy    PG-13     United States   2004-05-28  
12 Feeling Minne…   5.4 99      Comedy    R         United States   1996-09-13  
13 The Babe         5.9 115     Biography PG        United States   1992-04-17  
14 The Real Blon…   6   105     Comedy    R         United States   1998-02-27  
15 To vlemma tou…   7.6 176     Drama     Not Rated United States   1997-11-01  
16 Going the Dis…   6.3 102     Comedy    R         United States   2010-09-03  
17 Jung on zo       6.8 103     Action    R         Hong Kong       1993-06-24  
18 Rita, Sue and…   6.5 93      Comedy    R         United Kingdom  1987-05-29  
19 Phone Booth      7   81      Crime     R         United States   2003-04-04  
20 Happy Death D…   6.6 96      Comedy    PG-13     United States   2017-10-13  
21 Barely Legal     4.7 90      Comedy    R         Thailand        2006-05-25  
22 Three Kings      7.1 114     Action    R         United States   1999-10-01  
23 Menace II Soc…   7.5 97      Crime     R         United States   1993-05-26  
24 Four Rooms       6.8 98      Comedy    R         United States   1995-12-25  
25 Quartet          6.8 98      Comedy    PG-13     United States   2013-03-01  
26 Tape             7.2 86      Drama     R         Denmark         2002-07-12  
27 Marked for De…   6   93      Action    R         United States   1990-10-05  
28 Congo            5.2 109     Action    PG-13     United States   1995-06-09  
29 Stop-Loss        6.4 112     Drama     R         United States   2008-03-28  
30 Con Air          6.9 115     Action    R         United States   1997-06-06  
# ℹ 470 more rows
# ℹ 9 more variables: budget, gross, votes, year,
#   director, writer, star, company, country
…
christmas
Whether the title includes “christmas”, “xmas”, “x mas”, etc.

hanukkah
Whether the title includes “hanukkah”, “chanukah”, etc.

kwanzaa
Whether the title includes “kwanzaa”

holiday
Whether the title includes the word “holiday”

A peek at the data is shown below.

# A tibble: 1,835 × 12
   id        title_type  title     year runtime genre  score num_votes christmas
   <chr>     <chr>       <chr>    <dbl>   <dbl> <chr>  <dbl>     <dbl> <lgl>    
 1 tt0020356 Feature Fi… Sailor'…  1929      58 Comedy   5.4        55 FALSE    
 2 tt0020823 Feature Fi… The Dev…  1930      80 Drama    6         242 FALSE    
 3 tt0020985 Feature Fi… Holiday   1930      91 Comedy   6.3       638 FALSE    
 4 tt0021268 Feature Fi… Holiday…  1930      83 Comedy   7.4       256 FALSE    
 5 tt0021377 Feature Fi… Sin Tak…  1930      81 Comedy   6.1       740 FALSE    
 6 tt0021381 Feature Fi… Sinners…  1930      60 Other    6.3       688 FALSE    
 7 tt0023039 Feature Fi… Husband…  1931      70 Drama    6.4        27 FALSE    
 8 tt0024869 Feature Fi… Beggar'…  1934      60 Other    5.6        15 FALSE    
 9 tt0025006 Feature Fi… Cowboy …  1934      56 Other    4.8        74 FALSE    
10 tt0025037 Feature Fi… Death T…  1934      79 Drama    6.9      2361 FALSE    
# ℹ 1,825 more rows
# ℹ 3 more variables: hanukkah <lgl>, kwanzaa <lgl>, holiday <lgl>
…
